%YAML 1.1
%TAG !u! tag:unity3d.com,2011:
--- !u!74 &7400000
AnimationClip:
  m_ObjectHideFlags: 0
  m_PrefabParentObject: {fileID: 0}
  m_PrefabInternal: {fileID: 0}
  m_Name: show
  serializedVersion: 4
  m_AnimationType: 1
  m_Compressed: 0
  m_UseHighQualityCurve: 1
  m_RotationCurves: []
  m_CompressedRotationCurves: []
  m_PositionCurves:
  - curve:
      serializedVersion: 2
      m_Curve:
      - time: .000166666665
        value: {x: 1.67997456, y: .416417122, z: 1}
        inSlope: {x: 0, y: 0, z: 0}
        outSlope: {x: 0, y: 0, z: 0}
        tangentMode: 0
      - time: .333333343
        value: {x: 1.67997456, y: -1.19999981, z: 1}
        inSlope: {x: 0, y: 0, z: 0}
        outSlope: {x: 0, y: 0, z: 0}
        tangentMode: 0
      m_PreInfinity: 2
      m_PostInfinity: 2
    path: TopLeft/BestNumber
  - curve:
      serializedVersion: 2
      m_Curve:
      - time: .000166666665
        value: {x: .254146576, y: .416417122, z: 1}
        inSlope: {x: 0, y: 0, z: 0}
        outSlope: {x: 0, y: 0, z: 0}
        tangentMode: 0
      - time: .333333343
        value: {x: .254146576, y: -1.19999981, z: 1}
        inSlope: {x: 0, y: 0, z: 0}
        outSlope: {x: 0, y: 0, z: 0}
        tangentMode: 763861156
      m_PreInfinity: 2
      m_PostInfinity: 2
    path: TopLeft/BestText
  - curve:
      serializedVersion: 2
      m_Curve:
      - time: .000166666665
        value: {x: 2.00447178, y: 1.01641655, z: 1}
        inSlope: {x: 0, y: 0, z: 0}
        outSlope: {x: 0, y: 0, z: 0}
        tangentMode: 0
      - time: .333333343
        value: {x: 2.00447178, y: -.600000381, z: 1}
        inSlope: {x: 0, y: 0, z: 0}
        outSlope: {x: 0, y: 0, z: 0}
        tangentMode: 112257552
      m_PreInfinity: 2
      m_PostInfinity: 2
    path: TopLeft/ScoreNumber
  - curve:
      serializedVersion: 2
      m_Curve:
      - time: .000166666665
        value: {x: .244312286, y: 1.02272034, z: 1}
        inSlope: {x: 0, y: 0, z: 0}
        outSlope: {x: 0, y: 0, z: 0}
        tangentMode: 0
      - time: .333333343
        value: {x: .244312286, y: -.593696594, z: 1}
        inSlope: {x: 0, y: 0, z: 0}
        outSlope: {x: 0, y: 0, z: 0}
        tangentMode: 758579236
      m_PreInfinity: 2
      m_PostInfinity: 2
    path: TopLeft/ScoreText
  - curve:
      serializedVersion: 2
      m_Curve:
      - time: .000166666665
        value: {x: -.213451385, y: .700365067, z: 1}
        inSlope: {x: 0, y: 0, z: 0}
        outSlope: {x: 0, y: 0, z: 0}
        tangentMode: 0
      - time: .333333343
        value: {x: -.213451385, y: -.788440704, z: 1}
        inSlope: {x: 0, y: 0, z: 0}
        outSlope: {x: 0, y: 0, z: 0}
        tangentMode: 0
      m_PreInfinity: 2
      m_PostInfinity: 2
    path: TopRight/LevelNameText
  m_ScaleCurves: []
  m_FloatCurves: []
  m_PPtrCurves: []
  m_SampleRate: 60
  m_WrapMode: 8
  m_Bounds:
    m_Center: {x: 0, y: 0, z: 0}
    m_Extent: {x: 0, y: 0, z: 0}
  m_AnimationClipSettings:
    serializedVersion: 2
    m_StartTime: 0
    m_StopTime: .333333343
    m_OrientationOffsetY: 0
    m_Level: 0
    m_CycleOffset: 0
    m_LoopTime: 0
    m_LoopBlend: 0
    m_LoopBlendOrientation: 0
    m_LoopBlendPositionY: 0
    m_LoopBlendPositionXZ: 0
    m_KeepOriginalOrientation: 0
    m_KeepOriginalPositionY: 1
    m_KeepOriginalPositionXZ: 0
    m_HeightFromFeet: 0
    m_Mirror: 0
  m_EditorCurves:
  - curve:
      serializedVersion: 2
      m_Curve:
      - time: .000166666665
        value: 1.67997456
        inSlope: 0
        outSlope: 0
        tangentMode: 0
      - time: .333333343
        value: 1.67997456
        inSlope: 0
        outSlope: 0
        tangentMode: 0
      m_PreInfinity: 2
      m_PostInfinity: 2
    attribute: m_LocalPosition.x
    path: TopLeft/BestNumber
    classID: 4
    script: {fileID: 0}
  - curve:
      serializedVersion: 2
      m_Curve:
      - time: .000166666665
        value: .416417122
        inSlope: 0
        outSlope: 0
        tangentMode: 0
      - time: .333333343
        value: -1.19999981
        inSlope: 0
        outSlope: 0
        tangentMode: 0
      m_PreInfinity: 2
      m_PostInfinity: 2
    attribute: m_LocalPosition.y
    path: TopLeft/BestNumber
    classID: 4
    script: {fileID: 0}
  - curve:
      serializedVersion: 2
      m_Curve:
      - time: .000166666665
        value: 1
        inSlope: 0
        outSlope: 0
        tangentMode: 0
      - time: .333333343
        value: 1
        inSlope: 0
        outSlope: 0
        tangentMode: 0
      m_PreInfinity: 2
      m_PostInfinity: 2
    attribute: m_LocalPosition.z
    path: TopLeft/BestNumber
    classID: 4
    script: {fileID: 0}
  - curve:
      serializedVersion: 2
      m_Curve:
      - time: .000166666665
        value: .254146576
        inSlope: 0
        outSlope: 0
        tangentMode: 0
      - time: .333333343
        value: .254146576
        inSlope: 0
        outSlope: 0
        tangentMode: 0
      m_PreInfinity: 2
      m_PostInfinity: 2
    attribute: m_LocalPosition.x
    path: TopLeft/BestText
    classID: 4
    script: {fileID: 0}
  - curve:
      serializedVersion: 2
      m_Curve:
      - time: .000166666665
        value: .416417122
        inSlope: 0
        outSlope: 0
        tangentMode: 0
      - time: .333333343
        value: -1.19999981
        inSlope: 0
        outSlope: 0
        tangentMode: 0
      m_PreInfinity: 2
      m_PostInfinity: 2
    attribute: m_LocalPosition.y
    path: TopLeft/BestText
    classID: 4
    script: {fileID: 0}
  - curve:
      serializedVersion: 2
      m_Curve:
      - time: .000166666665
        value: 1
        inSlope: 0
        outSlope: 0
        tangentMode: 0
      - time: .333333343
        value: 1
        inSlope: 0
        outSlope: 0
        tangentMode: 0
      m_PreInfinity: 2
      m_PostInfinity: 2
    attribute: m_LocalPosition.z
    path: TopLeft/BestText
    classID: 4
    script: {fileID: 0}
  - curve:
      serializedVersion: 2
      m_Curve:
      - time: .000166666665
        value: 2.00447178
        inSlope: 0
        outSlope: 0
        tangentMode: 0
      - time: .333333343
        value: 2.00447178
        inSlope: 0
        outSlope: 0
        tangentMode: 0
      m_PreInfinity: 2
      m_PostInfinity: 2
    attribute: m_LocalPosition.x
    path: TopLeft/ScoreNumber
    classID: 4
    script: {fileID: 0}
  - curve:
      serializedVersion: 2
      m_Curve:
      - time: .000166666665
        value: 1.01641655
        inSlope: 0
        outSlope: 0
        tangentMode: 0
      - time: .333333343
        value: -.600000381
        inSlope: 0
        outSlope: 0
        tangentMode: 0
      m_PreInfinity: 2
      m_PostInfinity: 2
    attribute: m_LocalPosition.y
    path: TopLeft/ScoreNumber
    classID: 4
    script: {fileID: 0}
  - curve:
      serializedVersion: 2
      m_Curve:
      - time: .000166666665
        value: 1
        inSlope: 0
        outSlope: 0
        tangentMode: 0
      - time: .333333343
        value: 1
        inSlope: 0
        outSlope: 0
        tangentMode: 0
      m_PreInfinity: 2
      m_PostInfinity: 2
    attribute: m_LocalPosition.z
    path: TopLeft/ScoreNumber
    classID: 4
    script: {fileID: 0}
  - curve:
      serializedVersion: 2
      m_Curve:
      - time: .000166666665
        value: .244312286
        inSlope: 0
        outSlope: 0
        tangentMode: 0
      - time: .333333343
        value: .244312286
        inSlope: 0
        outSlope: 0
        tangentMode: 0
      m_PreInfinity: 2
      m_PostInfinity: 2
    attribute: m_LocalPosition.x
    path: TopLeft/ScoreText
    classID: 4
    script: {fileID: 0}
  - curve:
      serializedVersion: 2
      m_Curve:
      - time: .000166666665
        value: 1.02272034
        inSlope: 0
        outSlope: 0
        tangentMode: 0
      - time: .333333343
        value: -.593696594
        inSlope: 0
        outSlope: 0
        tangentMode: 0
      m_PreInfinity: 2
      m_PostInfinity: 2
    attribute: m_LocalPosition.y
    path: TopLeft/ScoreText
    classID: 4
    script: {fileID: 0}
  - curve:
      serializedVersion: 2
      m_Curve:
      - time: .000166666665
        value: 1
        inSlope: 0
        outSlope: 0
        tangentMode: 0
      - time: .333333343
        value: 1
        inSlope: 0
        outSlope: 0
        tangentMode: 0
      m_PreInfinity: 2
      m_PostInfinity: 2
    attribute: m_LocalPosition.z
    path: TopLeft/ScoreText
    classID: 4
    script: {fileID: 0}
  - curve:
      serializedVersion: 2
      m_Curve:
      - time: .000166666665
        value: -.213451385
        inSlope: 0
        outSlope: 0
        tangentMode: 0
      - time: .333333343
        value: -.213451385
        inSlope: 0
        outSlope: 0
        tangentMode: 0
      m_PreInfinity: 2
      m_PostInfinity: 2
    attribute: m_LocalPosition.x
    path: TopRight/LevelNameText
    classID: 4
    script: {fileID: 0}
  - curve:
      serializedVersion: 2
      m_Curve:
      - time: .000166666665
        value: .700365067
        inSlope: 0
        outSlope: 0
        tangentMode: 0
      - time: .333333343
        value: -.788440704
        inSlope: 0
        outSlope: 0
        tangentMode: 0
      m_PreInfinity: 2
      m_PostInfinity: 2
    attribute: m_LocalPosition.y
    path: TopRight/LevelNameText
    classID: 4
    script: {fileID: 0}
  - curve:
      serializedVersion: 2
      m_Curve:
      - time: .000166666665
        value: 1
        inSlope: 0
        outSlope: 0
        tangentMode: 0
      - time: .333333343
        value: 1
        inSlope: 0
        outSlope: 0
        tangentMode: 0
      m_PreInfinity: 2
      m_PostInfinity: 2
    attribute: m_LocalPosition.z
    path: TopRight/LevelNameText
    classID: 4
    script: {fileID: 0}
  m_EulerEditorCurves: []
  m_Events: []
