%YAML 1.1
%TAG !u! tag:unity3d.com,2011:
--- !u!128 &12800000
Font:
  m_ObjectHideFlags: 0
  m_PrefabParentObject: {fileID: 0}
  m_PrefabInternal: {fileID: 0}
  m_Name: font 1
  serializedVersion: 4
  m_AsciiStartOffset: 0
  m_Kerning: 1
  m_LineSpacing: .100000001
  m_CharacterSpacing: 1
  m_CharacterPadding: 0
  m_ConvertCase: 0
  m_DefaultMaterial: {fileID: 2100000, guid: 62e50395a8523714e8a3fea857f72d67, type: 2}
  m_CharacterRects:
  - serializedVersion: 2
    index: 33
    uv:
      serializedVersion: 2
      x: .951754391
      y: 1
      width: .0372807011
      height: -.120879121
    vert:
      serializedVersion: 2
      x: 0
      y: 0
      width: .0372807011
      height: .120879121
    width: .0372807011
    flipped: 0
  - serializedVersion: 2
    index: 34
    uv:
      serializedVersion: 2
      x: .418859661
      y: .261538476
      width: .0592105277
      height: -.0461538471
    vert:
      serializedVersion: 2
      x: 0
      y: .0747252777
      width: .0592105277
      height: .0461538471
    width: .0592105277
    flipped: 0
  - serializedVersion: 2
    index: 35
    uv:
      serializedVersion: 2
      x: 0
      y: .290109903
      width: .114035085
      height: -.120879121
    vert:
      serializedVersion: 2
      x: 0
      y: 0
      width: .114035085
      height: .120879121
    width: .114035085
    flipped: 0
  - serializedVersion: 2
    index: 36
    uv:
      serializedVersion: 2
      x: .605263174
      y: .751648366
      width: .0855263174
      height: -.147252753
    vert:
      serializedVersion: 2
      x: 0
      y: -.0131868133
      width: .0855263174
      height: .147252753
    width: .0855263174
    flipped: 0
  - serializedVersion: 2
    index: 37
    uv:
      serializedVersion: 2
      x: 0
      y: .876923084
      width: .142543852
      height: -.123076923
    vert:
      serializedVersion: 2
      x: 0
      y: -.0021978023
      width: .142543852
      height: .123076923
    width: .142543852
    flipped: 0
  - serializedVersion: 2
    index: 38
    uv:
      serializedVersion: 2
      x: 0
      y: .167032972
      width: .10745614
      height: -.123076923
    vert:
      serializedVersion: 2
      x: 0
      y: -.0021978023
      width: .10745614
      height: .123076923
    width: .10745614
    flipped: 0
  - serializedVersion: 2
    index: 39
    uv:
      serializedVersion: 2
      x: .605263174
      y: .602197826
      width: .0350877196
      height: -.0461538471
    vert:
      serializedVersion: 2
      x: 0
      y: .0747252777
      width: .0350877196
      height: .0461538471
    width: .0350877196
    flipped: 0
  - serializedVersion: 2
    index: 40
    uv:
      serializedVersion: 2
      x: .907894731
      y: .358241767
      width: .0570175424
      height: -.169230774
    vert:
      serializedVersion: 2
      x: 0
      y: -.0307692308
      width: .0570175424
      height: .169230774
    width: .0570175424
    flipped: 0
  - serializedVersion: 2
    index: 41
    uv:
      serializedVersion: 2
      x: .850877166
      y: .830769241
      width: .0570175424
      height: -.169230774
    vert:
      serializedVersion: 2
      x: 0
      y: -.0307692308
      width: .0570175424
      height: .169230774
    width: .0570175424
    flipped: 0
  - serializedVersion: 2
    index: 42
    uv:
      serializedVersion: 2
      x: .403508782
      y: .0681318715
      width: .0679824576
      height: -.0659340695
    vert:
      serializedVersion: 2
      x: 0
      y: .0549450554
      width: .0679824576
      height: .0659340695
    width: .0679824576
    flipped: 0
  - serializedVersion: 2
    index: 43
    uv:
      serializedVersion: 2
      x: .690789461
      y: .47912088
      width: .0767543837
      height: -.0769230798
    vert:
      serializedVersion: 2
      x: 0
      y: .0197802205
      width: .0767543837
      height: .0769230798
    width: .0767543837
    flipped: 0
  - serializedVersion: 2
    index: 44
    uv:
      serializedVersion: 2
      x: .912280679
      y: .0791208819
      width: .0372807011
      height: -.0483516492
    vert:
      serializedVersion: 2
      x: 0
      y: -.0131868133
      width: .0372807011
      height: .0483516492
    width: .0372807011
    flipped: 0
  - serializedVersion: 2
    index: 45
    uv:
      serializedVersion: 2
      x: .179824561
      y: .0439560451
      width: .0614035092
      height: -.0329670347
    vert:
      serializedVersion: 2
      x: 0
      y: .0329670347
      width: .0614035092
      height: .0329670347
    width: .0614035092
    flipped: 0
  - serializedVersion: 2
    index: 46
    uv:
      serializedVersion: 2
      x: .642543852
      y: .602197826
      width: .0350877196
      height: -.0351648368
    vert:
      serializedVersion: 2
      x: 0
      y: 0
      width: .0350877196
      height: .0351648368
    width: .0350877196
    flipped: 0
  - serializedVersion: 2
    index: 47
    uv:
      serializedVersion: 2
      x: .771929801
      y: .47912088
      width: .0745614022
      height: -.138461545
    vert:
      serializedVersion: 2
      x: 0
      y: -.0109890113
      width: .0745614022
      height: .138461545
    width: .0745614022
    flipped: 0
  - serializedVersion: 2
    index: 48
    uv:
      serializedVersion: 2
      x: .324561417
      y: .314285725
      width: .092105262
      height: -.120879121
    vert:
      serializedVersion: 2
      x: 0
      y: 0
      width: .092105262
      height: .120879121
    width: .092105262
    flipped: 0
  - serializedVersion: 2
    index: 49
    uv:
      serializedVersion: 2
      x: .850877166
      y: .65934068
      width: .0548245609
      height: -.120879121
    vert:
      serializedVersion: 2
      x: 0
      y: 0
      width: .0548245609
      height: .120879121
    width: .0548245609
    flipped: 0
  - serializedVersion: 2
    index: 50
    uv:
      serializedVersion: 2
      x: .513157904
      y: .650549471
      width: .0899122804
      height: -.123076923
    vert:
      serializedVersion: 2
      x: 0
      y: 0
      width: .0899122804
      height: .123076923
    width: .0899122804
    flipped: 0
  - serializedVersion: 2
    index: 51
    uv:
      serializedVersion: 2
      x: .504385948
      y: .136263743
      width: .0899122804
      height: -.120879121
    vert:
      serializedVersion: 2
      x: 0
      y: 0
      width: .0899122804
      height: .120879121
    width: .0899122804
    flipped: 0
  - serializedVersion: 2
    index: 52
    uv:
      serializedVersion: 2
      x: .144736841
      y: .876923084
      width: .0986842141
      height: -.120879121
    vert:
      serializedVersion: 2
      x: 0
      y: 0
      width: .0986842141
      height: .120879121
    width: .0986842141
    flipped: 0
  - serializedVersion: 2
    index: 53
    uv:
      serializedVersion: 2
      x: .596491218
      y: .125274733
      width: .0855263174
      height: -.120879121
    vert:
      serializedVersion: 2
      x: 0
      y: 0
      width: .0855263174
      height: .120879121
    width: .0855263174
    flipped: 0
  - serializedVersion: 2
    index: 54
    uv:
      serializedVersion: 2
      x: .434210539
      y: 1
      width: .0899122804
      height: -.123076923
    vert:
      serializedVersion: 2
      x: 0
      y: 0
      width: .0899122804
      height: .123076923
    width: .0899122804
    flipped: 0
  - serializedVersion: 2
    index: 55
    uv:
      serializedVersion: 2
      x: .418859661
      y: .384615391
      width: .0899122804
      height: -.120879121
    vert:
      serializedVersion: 2
      x: 0
      y: 0
      width: .0899122804
      height: .120879121
    width: .0899122804
    flipped: 0
  - serializedVersion: 2
    index: 56
    uv:
      serializedVersion: 2
      x: .526315808
      y: 1
      width: .0877192989
      height: -.120879121
    vert:
      serializedVersion: 2
      x: 0
      y: 0
      width: .0877192989
      height: .120879121
    width: .0877192989
    flipped: 0
  - serializedVersion: 2
    index: 57
    uv:
      serializedVersion: 2
      x: .51096493
      y: .505494535
      width: .0899122804
      height: -.120879121
    vert:
      serializedVersion: 2
      x: 0
      y: 0
      width: .0899122804
      height: .120879121
    width: .0899122804
    flipped: 0
  - serializedVersion: 2
    index: 58
    uv:
      serializedVersion: 2
      x: .782894731
      y: 1
      width: .0350877196
      height: -.0923076943
    vert:
      serializedVersion: 2
      x: 0
      y: 0
      width: .0350877196
      height: .0923076943
    width: .0350877196
    flipped: 0
  - serializedVersion: 2
    index: 59
    uv:
      serializedVersion: 2
      x: .912280679
      y: .186813191
      width: .0372807011
      height: -.105494507
    vert:
      serializedVersion: 2
      x: 0
      y: -.0131868133
      width: .0372807011
      height: .105494507
    width: .0372807011
    flipped: 0
  - serializedVersion: 2
    index: 60
    uv:
      serializedVersion: 2
      x: .776315808
      y: .608791232
      width: .0723684207
      height: -.0791208819
    vert:
      serializedVersion: 2
      x: 0
      y: .0175824184
      width: .0723684207
      height: .0791208819
    width: .0723684207
    flipped: 0
  - serializedVersion: 2
    index: 61
    uv:
      serializedVersion: 2
      x: .326754391
      y: .384615391
      width: .0789473653
      height: -.0637362674
    vert:
      serializedVersion: 2
      x: 0
      y: .0263736267
      width: .0789473653
      height: .0637362674
    width: .0789473653
    flipped: 0
  - serializedVersion: 2
    index: 62
    uv:
      serializedVersion: 2
      x: .769736826
      y: .131868139
      width: .0723684207
      height: -.0791208819
    vert:
      serializedVersion: 2
      x: 0
      y: .0175824184
      width: .0723684207
      height: .0791208819
    width: .0723684207
    flipped: 0
  - serializedVersion: 2
    index: 63
    uv:
      serializedVersion: 2
      x: .421052635
      y: .630769253
      width: .0899122804
      height: -.123076923
    vert:
      serializedVersion: 2
      x: 0
      y: 0
      width: .0899122804
      height: .123076923
    width: .0899122804
    flipped: 0
  - serializedVersion: 2
    index: 64
    uv:
      serializedVersion: 2
      x: 0
      y: .437362641
      width: .122807018
      height: -.145054951
    vert:
      serializedVersion: 2
      x: 0
      y: -.0285714287
      width: .122807018
      height: .145054951
    width: .122807018
    flipped: 0
  - serializedVersion: 2
    index: 65
    uv:
      serializedVersion: 2
      x: .116228074
      y: .290109903
      width: .10745614
      height: -.120879121
    vert:
      serializedVersion: 2
      x: 0
      y: 0
      width: .10745614
      height: .120879121
    width: .10745614
    flipped: 0
  - serializedVersion: 2
    index: 66
    uv:
      serializedVersion: 2
      x: .425438583
      y: .773626387
      width: .0899122804
      height: -.120879121
    vert:
      serializedVersion: 2
      x: 0
      y: 0
      width: .0899122804
      height: .120879121
    width: .0899122804
    flipped: 0
  - serializedVersion: 2
    index: 67
    uv:
      serializedVersion: 2
      x: .596491218
      y: .382417589
      width: .0877192989
      height: -.120879121
    vert:
      serializedVersion: 2
      x: 0
      y: 0
      width: .0877192989
      height: .120879121
    width: .0877192989
    flipped: 0
  - serializedVersion: 2
    index: 68
    uv:
      serializedVersion: 2
      x: .219298244
      y: .167032972
      width: .0964912251
      height: -.120879121
    vert:
      serializedVersion: 2
      x: 0
      y: 0
      width: .0964912251
      height: .120879121
    width: .0964912251
    flipped: 0
  - serializedVersion: 2
    index: 69
    uv:
      serializedVersion: 2
      x: .690789461
      y: .602197826
      width: .0833333358
      height: -.120879121
    vert:
      serializedVersion: 2
      x: 0
      y: 0
      width: .0833333358
      height: .120879121
    width: .0833333358
    flipped: 0
  - serializedVersion: 2
    index: 70
    uv:
      serializedVersion: 2
      x: .684210539
      y: .259340674
      width: .0833333358
      height: -.120879121
    vert:
      serializedVersion: 2
      x: 0
      y: 0
      width: .0833333358
      height: .120879121
    width: .0833333358
    flipped: 0
  - serializedVersion: 2
    index: 71
    uv:
      serializedVersion: 2
      x: .326754391
      y: .630769253
      width: .092105262
      height: -.120879121
    vert:
      serializedVersion: 2
      x: 0
      y: 0
      width: .092105262
      height: .120879121
    width: .092105262
    flipped: 0
  - serializedVersion: 2
    index: 72
    uv:
      serializedVersion: 2
      x: .331140339
      y: .753846169
      width: .092105262
      height: -.120879121
    vert:
      serializedVersion: 2
      x: 0
      y: 0
      width: .092105262
      height: .120879121
    width: .092105262
    flipped: 0
  - serializedVersion: 2
    index: 73
    uv:
      serializedVersion: 2
      x: .962719321
      y: .661538482
      width: .0350877196
      height: -.120879121
    vert:
      serializedVersion: 2
      x: 0
      y: 0
      width: .0350877196
      height: .120879121
    width: .0350877196
    flipped: 0
  - serializedVersion: 2
    index: 74
    uv:
      serializedVersion: 2
      x: .846491218
      y: .338461548
      width: .0592105277
      height: -.123076923
    vert:
      serializedVersion: 2
      x: 0
      y: -.0021978023
      width: .0592105277
      height: .123076923
    width: .0592105277
    flipped: 0
  - serializedVersion: 2
    index: 75
    uv:
      serializedVersion: 2
      x: .326754391
      y: .507692337
      width: .092105262
      height: -.120879121
    vert:
      serializedVersion: 2
      x: 0
      y: 0
      width: .092105262
      height: .120879121
    width: .092105262
    flipped: 0
  - serializedVersion: 2
    index: 76
    uv:
      serializedVersion: 2
      x: .686403513
      y: .395604402
      width: .0833333358
      height: -.120879121
    vert:
      serializedVersion: 2
      x: 0
      y: 0
      width: .0833333358
      height: .120879121
    width: .0833333358
    flipped: 0
  - serializedVersion: 2
    index: 77
    uv:
      serializedVersion: 2
      x: 0
      y: .560439587
      width: .122807018
      height: -.120879121
    vert:
      serializedVersion: 2
      x: 0
      y: 0
      width: .122807018
      height: .120879121
    width: .122807018
    flipped: 0
  - serializedVersion: 2
    index: 78
    uv:
      serializedVersion: 2
      x: .225877196
      y: .314285725
      width: .0964912251
      height: -.120879121
    vert:
      serializedVersion: 2
      x: 0
      y: 0
      width: .0964912251
      height: .120879121
    width: .0964912251
    flipped: 0
  - serializedVersion: 2
    index: 79
    uv:
      serializedVersion: 2
      x: .125
      y: .437362641
      width: .100877196
      height: -.120879121
    vert:
      serializedVersion: 2
      x: 0
      y: 0
      width: .100877196
      height: .120879121
    width: .100877196
    flipped: 0
  - serializedVersion: 2
    index: 80
    uv:
      serializedVersion: 2
      x: .412280709
      y: .191208795
      width: .0899122804
      height: -.120879121
    vert:
      serializedVersion: 2
      x: 0
      y: 0
      width: .0899122804
      height: .120879121
    width: .0899122804
    flipped: 0
  - serializedVersion: 2
    index: 81
    uv:
      serializedVersion: 2
      x: .131578952
      y: .751648366
      width: .100877196
      height: -.145054951
    vert:
      serializedVersion: 2
      x: 0
      y: -.0241758246
      width: .100877196
      height: .145054951
    width: .100877196
    flipped: 0
  - serializedVersion: 2
    index: 82
    uv:
      serializedVersion: 2
      x: .234649122
      y: .753846169
      width: .0942982435
      height: -.120879121
    vert:
      serializedVersion: 2
      x: 0
      y: 0
      width: .0942982435
      height: .120879121
    width: .0942982435
    flipped: 0
  - serializedVersion: 2
    index: 83
    uv:
      serializedVersion: 2
      x: .504385948
      y: .261538476
      width: .0899122804
      height: -.123076923
    vert:
      serializedVersion: 2
      x: 0
      y: -.0021978023
      width: .0899122804
      height: .123076923
    width: .0899122804
    flipped: 0
  - serializedVersion: 2
    index: 84
    uv:
      serializedVersion: 2
      x: .245614037
      y: .876923084
      width: .0942982435
      height: -.120879121
    vert:
      serializedVersion: 2
      x: 0
      y: 0
      width: .0942982435
      height: .120879121
    width: .0942982435
    flipped: 0
  - serializedVersion: 2
    index: 85
    uv:
      serializedVersion: 2
      x: .22807017
      y: .437362641
      width: .0964912251
      height: -.120879121
    vert:
      serializedVersion: 2
      x: 0
      y: 0
      width: .0964912251
      height: .120879121
    width: .0964912251
    flipped: 0
  - serializedVersion: 2
    index: 86
    uv:
      serializedVersion: 2
      x: .109649122
      y: .167032972
      width: .10745614
      height: -.120879121
    vert:
      serializedVersion: 2
      x: 0
      y: 0
      width: .10745614
      height: .120879121
    width: .10745614
    flipped: 0
  - serializedVersion: 2
    index: 87
    uv:
      serializedVersion: 2
      x: 0
      y: 1
      width: .149122804
      height: -.120879121
    vert:
      serializedVersion: 2
      x: 0
      y: 0
      width: .149122804
      height: .120879121
    width: .149122804
    flipped: 0
  - serializedVersion: 2
    index: 88
    uv:
      serializedVersion: 2
      x: .151315793
      y: 1
      width: .0986842141
      height: -.120879121
    vert:
      serializedVersion: 2
      x: 0
      y: 0
      width: .0986842141
      height: .120879121
    width: .0986842141
    flipped: 0
  - serializedVersion: 2
    index: 89
    uv:
      serializedVersion: 2
      x: .125
      y: .560439587
      width: .103070177
      height: -.120879121
    vert:
      serializedVersion: 2
      x: 0
      y: 0
      width: .103070177
      height: .120879121
    width: .103070177
    flipped: 0
  - serializedVersion: 2
    index: 90
    uv:
      serializedVersion: 2
      x: .517543852
      y: .874725282
      width: .0877192989
      height: -.120879121
    vert:
      serializedVersion: 2
      x: 0
      y: 0
      width: .0877192989
      height: .120879121
    width: .0877192989
    flipped: 0
  - serializedVersion: 2
    index: 91
    uv:
      serializedVersion: 2
      x: .910087705
      y: .529670358
      width: .0526315793
      height: -.167032972
    vert:
      serializedVersion: 2
      x: 0
      y: -.0307692308
      width: .0526315793
      height: .167032972
    width: .0526315793
    flipped: 0
  - serializedVersion: 2
    index: 92
    uv:
      serializedVersion: 2
      x: .769736826
      y: .272527486
      width: .0745614022
      height: -.138461545
    vert:
      serializedVersion: 2
      x: 0
      y: -.0109890113
      width: .0745614022
      height: .138461545
    width: .0745614022
    flipped: 0
  - serializedVersion: 2
    index: 93
    uv:
      serializedVersion: 2
      x: .910087705
      y: .830769241
      width: .0526315793
      height: -.167032972
    vert:
      serializedVersion: 2
      x: 0
      y: -.0307692308
      width: .0526315793
      height: .167032972
    width: .0526315793
    flipped: 0
  - serializedVersion: 2
    index: 94
    uv:
      serializedVersion: 2
      x: .131578952
      y: .604395628
      width: .0614035092
      height: -.0373626389
    vert:
      serializedVersion: 2
      x: 0
      y: .0747252777
      width: .0614035092
      height: .0373626389
    width: .0614035092
    flipped: 0
  - serializedVersion: 2
    index: 95
    uv:
      serializedVersion: 2
      x: 0
      y: .041758243
      width: .10745614
      height: -.0329670347
    vert:
      serializedVersion: 2
      x: 0
      y: 0
      width: .10745614
      height: .0329670347
    width: .10745614
    flipped: 0
  - serializedVersion: 2
    index: 96
    uv:
      serializedVersion: 2
      x: .243421048
      y: .0439560451
      width: .0482456125
      height: -.0373626389
    vert:
      serializedVersion: 2
      x: 0
      y: .0747252777
      width: .0482456125
      height: .0373626389
    width: .0482456125
    flipped: 0
  - serializedVersion: 2
    index: 97
    uv:
      serializedVersion: 2
      x: .517543852
      y: .751648366
      width: .0811403543
      height: -.0945054963
    vert:
      serializedVersion: 2
      x: 0
      y: 0
      width: .0811403543
      height: .0945054963
    width: .0811403543
    flipped: 0
  - serializedVersion: 2
    index: 98
    uv:
      serializedVersion: 2
      x: .684210539
      y: .136263743
      width: .0833333358
      height: -.127472535
    vert:
      serializedVersion: 2
      x: 0
      y: 0
      width: .0833333358
      height: .127472535
    width: .0833333358
    flipped: 0
  - serializedVersion: 2
    index: 99
    uv:
      serializedVersion: 2
      x: .346491218
      y: 1
      width: .0789473653
      height: -.0923076943
    vert:
      serializedVersion: 2
      x: 0
      y: 0
      width: .0789473653
      height: .0923076943
    width: .0789473653
    flipped: 0
  - serializedVersion: 2
    index: 100
    uv:
      serializedVersion: 2
      x: .603070199
      y: .525274754
      width: .0855263174
      height: -.127472535
    vert:
      serializedVersion: 2
      x: 0
      y: 0
      width: .0855263174
      height: .127472535
    width: .0855263174
    flipped: 0
  - serializedVersion: 2
    index: 101
    uv:
      serializedVersion: 2
      x: .607456148
      y: .870329678
      width: .0833333358
      height: -.0923076943
    vert:
      serializedVersion: 2
      x: 0
      y: 0
      width: .0833333358
      height: .0923076943
    width: .0833333358
    flipped: 0
  - serializedVersion: 2
    index: 102
    uv:
      serializedVersion: 2
      x: .778508782
      y: .905494511
      width: .0701754391
      height: -.127472535
    vert:
      serializedVersion: 2
      x: 0
      y: 0
      width: .0701754391
      height: .127472535
    width: .0701754391
    flipped: 0
  - serializedVersion: 2
    index: 103
    uv:
      serializedVersion: 2
      x: .342105269
      y: .905494511
      width: .0899122804
      height: -.129670337
    vert:
      serializedVersion: 2
      x: 0
      y: -.0373626389
      width: .0899122804
      height: .129670337
    width: .0899122804
    flipped: 0
  - serializedVersion: 2
    index: 104
    uv:
      serializedVersion: 2
      x: .692982435
      y: .870329678
      width: .0833333358
      height: -.127472535
    vert:
      serializedVersion: 2
      x: 0
      y: 0
      width: .0833333358
      height: .127472535
    width: .0833333358
    flipped: 0
  - serializedVersion: 2
    index: 105
    uv:
      serializedVersion: 2
      x: .951754391
      y: .186813191
      width: .0372807011
      height: -.118681319
    vert:
      serializedVersion: 2
      x: 0
      y: 0
      width: .0372807011
      height: .118681319
    width: .0372807011
    flipped: 0
  - serializedVersion: 2
    index: 106
    uv:
      serializedVersion: 2
      x: .912280679
      y: 1
      width: .0372807011
      height: -.158241764
    vert:
      serializedVersion: 2
      x: 0
      y: -.0395604409
      width: .0372807011
      height: .158241764
    width: .0372807011
    flipped: 0
  - serializedVersion: 2
    index: 107
    uv:
      serializedVersion: 2
      x: .616228044
      y: 1
      width: .0833333358
      height: -.127472535
    vert:
      serializedVersion: 2
      x: 0
      y: 0
      width: .0833333358
      height: .127472535
    width: .0833333358
    flipped: 0
  - serializedVersion: 2
    index: 108
    uv:
      serializedVersion: 2
      x: .907894731
      y: .65934068
      width: .0526315793
      height: -.127472535
    vert:
      serializedVersion: 2
      x: 0
      y: 0
      width: .0526315793
      height: .127472535
    width: .0526315793
    flipped: 0
  - serializedVersion: 2
    index: 109
    uv:
      serializedVersion: 2
      x: 0
      y: .657142878
      width: .129385963
      height: -.0945054963
    vert:
      serializedVersion: 2
      x: 0
      y: 0
      width: .129385963
      height: .0945054963
    width: .129385963
    flipped: 0
  - serializedVersion: 2
    index: 110
    uv:
      serializedVersion: 2
      x: .51096493
      y: .382417589
      width: .0833333358
      height: -.0945054963
    vert:
      serializedVersion: 2
      x: 0
      y: 0
      width: .0833333358
      height: .0945054963
    width: .0833333358
    flipped: 0
  - serializedVersion: 2
    index: 111
    uv:
      serializedVersion: 2
      x: .421052635
      y: .505494535
      width: .0877192989
      height: -.0923076943
    vert:
      serializedVersion: 2
      x: 0
      y: 0
      width: .0877192989
      height: .0923076943
    width: .0877192989
    flipped: 0
  - serializedVersion: 2
    index: 112
    uv:
      serializedVersion: 2
      x: .692982435
      y: .740659356
      width: .0833333358
      height: -.129670337
    vert:
      serializedVersion: 2
      x: 0
      y: -.0373626389
      width: .0833333358
      height: .129670337
    width: .0833333358
    flipped: 0
  - serializedVersion: 2
    index: 113
    uv:
      serializedVersion: 2
      x: .596491218
      y: .259340674
      width: .0855263174
      height: -.131868139
    vert:
      serializedVersion: 2
      x: 0
      y: -.0395604409
      width: .0855263174
      height: .131868139
    width: .0855263174
    flipped: 0
  - serializedVersion: 2
    index: 114
    uv:
      serializedVersion: 2
      x: .778508782
      y: .775824189
      width: .0679824576
      height: -.0923076943
    vert:
      serializedVersion: 2
      x: 0
      y: 0
      width: .0679824576
      height: .0923076943
    width: .0679824576
    flipped: 0
  - serializedVersion: 2
    index: 115
    uv:
      serializedVersion: 2
      x: .434210539
      y: .874725282
      width: .0811403543
      height: -.0923076943
    vert:
      serializedVersion: 2
      x: 0
      y: 0
      width: .0811403543
      height: .0923076943
    width: .0811403543
    flipped: 0
  - serializedVersion: 2
    index: 116
    uv:
      serializedVersion: 2
      x: .844298244
      y: .131868139
      width: .065789476
      height: -.114285715
    vert:
      serializedVersion: 2
      x: 0
      y: 0
      width: .065789476
      height: .114285715
    width: .065789476
    flipped: 0
  - serializedVersion: 2
    index: 117
    uv:
      serializedVersion: 2
      x: .317982465
      y: .0967032984
      width: .0833333358
      height: -.0945054963
    vert:
      serializedVersion: 2
      x: 0
      y: -.0021978023
      width: .0833333358
      height: .0945054963
    width: .0833333358
    flipped: 0
  - serializedVersion: 2
    index: 118
    uv:
      serializedVersion: 2
      x: .252192974
      y: 1
      width: .092105262
      height: -.0923076943
    vert:
      serializedVersion: 2
      x: 0
      y: 0
      width: .092105262
      height: .0923076943
    width: .092105262
    flipped: 0
  - serializedVersion: 2
    index: 119
    uv:
      serializedVersion: 2
      x: 0
      y: .751648366
      width: .129385963
      height: -.0923076943
    vert:
      serializedVersion: 2
      x: 0
      y: 0
      width: .129385963
      height: .0923076943
    width: .129385963
    flipped: 0
  - serializedVersion: 2
    index: 120
    uv:
      serializedVersion: 2
      x: .317982465
      y: .191208795
      width: .092105262
      height: -.0923076943
    vert:
      serializedVersion: 2
      x: 0
      y: 0
      width: .092105262
      height: .0923076943
    width: .092105262
    flipped: 0
  - serializedVersion: 2
    index: 121
    uv:
      serializedVersion: 2
      x: .230263159
      y: .604395628
      width: .0942982435
      height: -.131868139
    vert:
      serializedVersion: 2
      x: 0
      y: -.0395604409
      width: .0942982435
      height: .131868139
    width: .0942982435
    flipped: 0
  - serializedVersion: 2
    index: 122
    uv:
      serializedVersion: 2
      x: .701754391
      y: 1
      width: .0789473653
      height: -.0923076943
    vert:
      serializedVersion: 2
      x: 0
      y: 0
      width: .0789473653
      height: .0923076943
    width: .0789473653
    flipped: 0
  - serializedVersion: 2
    index: 123
    uv:
      serializedVersion: 2
      x: .848684192
      y: .527472556
      width: .0592105277
      height: -.167032972
    vert:
      serializedVersion: 2
      x: 0
      y: -.0307692308
      width: .0592105277
      height: .167032972
    width: .0592105277
    flipped: 0
  - serializedVersion: 2
    index: 124
    uv:
      serializedVersion: 2
      x: .964912295
      y: .876923084
      width: .032894738
      height: -.138461545
    vert:
      serializedVersion: 2
      x: 0
      y: -.0109890113
      width: .032894738
      height: .138461545
    width: .032894738
    flipped: 0
  - serializedVersion: 2
    index: 125
    uv:
      serializedVersion: 2
      x: .850877166
      y: 1
      width: .0592105277
      height: -.167032972
    vert:
      serializedVersion: 2
      x: 0
      y: -.0307692308
      width: .0592105277
      height: .167032972
    width: .0592105277
    flipped: 0
  - serializedVersion: 2
    index: 126
    uv:
      serializedVersion: 2
      x: .109649122
      y: .0439560451
      width: .0679824576
      height: -.0351648368
    vert:
      serializedVersion: 2
      x: 0
      y: .0747252777
      width: .0679824576
      height: .0351648368
    width: .0679824576
    flipped: 0
  - serializedVersion: 2
    index: 32
    uv:
      serializedVersion: 2
      x: 0
      y: 1
      width: 0
      height: -0
    vert:
      serializedVersion: 2
      x: 0
      y: .17582418
      width: 0
      height: 0
    width: 0
    flipped: 0
  - serializedVersion: 2
    index: 9
    uv:
      serializedVersion: 2
      x: 0
      y: 1
      width: 0
      height: -0
    vert:
      serializedVersion: 2
      x: 0
      y: .17582418
      width: 0
      height: 0
    width: 0
    flipped: 0
  - serializedVersion: 2
    index: 32
    uv:
      serializedVersion: 2
      x: 0
      y: 0
      width: 0
      height: 0
    vert:
      serializedVersion: 2
      x: 0
      y: 0
      width: 0
      height: 0
    width: .0700000003
    flipped: 0
  m_Texture: {fileID: 0}
  m_KerningValues: []
  m_PixelScale: .100000001
  m_FontData: 
  m_FontSize: 0
  m_Ascent: 0
  m_DefaultStyle: 0
  m_FontNames: []
  m_FallbackFonts: []
  m_FontRenderingMode: 0
